…
``` r
ny_df = ny_noaa |>
  drop_na(tmin, tmax) |>
  mutate(
    date = as.character(date),
    tmin = as.numeric(tmin),
    tmax = as.numeric(tmax),
    tmin = tmin / 10,
    tmax = tmax / 10
  ) |>
  separate(date, into = c("year", "month", "day"), sep = "-")
print(ny_df, n=10)
```

    ## # A tibble: 1,458,900 × 9
    ##    id          year  month day    prcp  snow  snwd  tmax  tmin
    ##    <chr>       <chr> <chr> <chr> <int> <int> <int> <dbl> <dbl>
    ##  1 USC00300023 1981  01    03        0     0     0 -12.2 -20.6
    ##  2 USC00300023 1981  01    05        0     0     0  -5.6 -17.8
    ##  3 USC00300023 1981  01    12        0     0     0 -12.2 -30.6
    ##  4 USC00300023 1981  01    13        0     0     0  -6.7 -28.9
    ##  5 USC00300023 1981  01    15        0     0     0  -5   -10.6
    ##  6 USC00300023 1981  01    17        0     0     0  -1.1 -15  
    ##  7 USC00300023 1981  01    20        0     0     0   6.1  -6.7
    ##  8 USC00300023 1981  01    21        0     0     0   1.7 -10.6
    ##  9 USC00300023 1981  01    22        0     0     0   0.6  -5  
    ## 10 USC00300023 1981  01    23      117   127    76   2.2  -4.4
    ## # ℹ 1,458,890 more rows
…
